R Interface to Brazilian Central Bank Web Services • rbcb
…
OLINDA API for currency rates

Currency rates

Cross currency rates

Usage

The get_series function

 Download the series by calling rbcb::get_series and pass the time series code is as the first argument. For example, let’s download the USDBRL time series which code is 1.

rbcb::get_series(c(USDBRL = 1))
#> # A tibble: 8,412 x 2
#>    date       USDBRL
#>  * <date>      <dbl>
#>  1 1984-11-28   2828
#>  2 1984-11-29   2828
#>  3 1984-11-30   2881
#>  4 1984-12-03   2881
#>  5 1984-12-04   2881
#>  6 1984-12-05   2923
#>  7 1984-12-06   2923
#>  8 1984-12-07   2923
#>  9 1984-12-10   2965
#> 10 1984-12-11   2965
#> # ... with 8,402 more rows
…
To see the avaliable currencies call list_currencies.

rbcb::list_currencies()
#> # A tibble: 218 x 5
#>    name                   code symbol country_name          country_code
#>  * <chr>                 <dbl> <chr>  <chr>                        <dbl>
#>  1 AFEGANE AFEGANIST         5 AFN    AFEGANISTAO                    132
#>  2 RANDE/AFRICA SUL        785 ZAR    AFRICA DO SUL                 7560
#>  3 LEK ALBANIA REP         490 ALL    ALBANIA, REPUBLICA DA          175
#>  4 EURO                    978 EUR    ALEMANHA                       230
#>  5 KWANZA/ANGOLA           635 AOA    ANGOLA                         400
#>  6 DOLAR CARIBE ORIENTAL   215 XCD    ANGUILLA                       418
#>  7 DOLAR CARIBE ORIENTAL   215 XCD    ANTIGUA E BARBUDA              434
#>  8 RIAL/ARAB SAUDITA       820 SAR    ARABIA SAUDITA                 531
#>  9 DINAR ARGELINO           95 DZD    ARGELIA                        590
#> 10 PESO ARGENTINO          706 ARS    ARGENTINA                      639
#> # ... with 208 more rows
…
