…
```r
devtools::install_github('rbcb', username='wilsonfreitas')
```

## Usage

Download series calling `rbcb::get_series` where the time series code is passed as the first argument.
For example, let's download the USDBRL time series which has `code = 1`.

```r
rbcb::get_series(1)
```

```
# A tibble: 8,024 × 2
                  data valor
*               <dttm> <dbl>
1  1984-11-28 12:00:00  2828
2  1984-11-29 12:00:00  2828
3  1984-11-30 12:00:00  2881
4  1984-12-03 12:00:00  2881
5  1984-12-04 12:00:00  2881
6  1984-12-05 12:00:00  2923
7  1984-12-06 12:00:00  2923
8  1984-12-07 12:00:00  2923
9  1984-12-10 12:00:00  2965
10 1984-12-11 12:00:00  2965
# ... with 8,014 more rows
```
…
